…
    ## Rows: 4342 Columns: 20
    ## ── Column specification ────────────────────────────────────────────────────────
    ## Delimiter: ","
    ## dbl (20): babysex, bhead, blength, bwt, delwt, fincome, frace, gaweeks, malf...
    ## 
    ## ℹ Use `spec()` to retrieve the full column specification for this data.
    ## ℹ Specify the column types or set `show_col_types = FALSE` to quiet this message.

``` r
birthweight %>% drop_na()
```

    ## # A tibble: 4,342 × 20
    ##    babysex bhead blength   bwt delwt fincome frace gaweeks malform menarche
    ##    <fct>   <dbl>   <dbl> <dbl> <dbl>   <dbl> <fct>   <dbl> <fct>      <dbl>
    ##  1 Female     34      51  3629   177      35 White    39.9 absent        13
    ##  2 Male       34      48  3062   156      65 Black    25.9 absent        14
    ##  3 Female     36      50  3345   148      85 White    39.9 absent        12
    ##  4 Male       34      52  3062   157      55 White    40   absent        14
    ##  5 Female     34      52  3374   156       5 White    41.6 absent        13
    ##  6 Male       33      52  3374   129      55 White    40.7 absent        12
    ##  7 Female     33      46  2523   126      96 Black    40.3 absent        14
    ##  8 Female     33      49  2778   140       5 White    37.4 absent        12
    ##  9 Male       36      52  3515   146      85 White    40.3 absent        11
    ## 10 Male       33      50  3459   169      75 Black    40.7 absent        12
    ## # … with 4,332 more rows, and 10 more variables: mheight <dbl>, momage <dbl>,
    ## #   mrace <fct>, parity <dbl>, pnumlbw <dbl>, pnumsga <dbl>, ppbmi <dbl>,
    ## #   ppwt <dbl>, smoken <dbl>, wtgain <dbl>
    ## # ℹ Use `print(n = ...)` to see more rows, and `colnames()` to see all variable names
…
